%YAML 1.1
%TAG !u! tag:unity3d.com,2011:
--- !u!213 &21300000
Sprite:
  m_ObjectHideFlags: 0
  m_CorrespondingSourceObject: {fileID: 0}
  m_PrefabInstance: {fileID: 0}
  m_PrefabAsset: {fileID: 0}
  m_Name: btn_1
  m_Rect:
    serializedVersion: 2
    x: 0
    y: 0
    width: 46
    height: 15
  m_Offset: {x: 0, y: -7.5}
  m_Border: {x: 0, y: 0, z: 0, w: 0}
  m_PixelsToUnits: 100
  m_Pivot: {x: 0.5, y: 0}
  m_Extrude: 1
  m_IsPolygon: 0
  m_AtlasName:
  m_PackingTag:
  m_RenderDataKey:
    69efab44753c40b4780570036dc83971: 21300000
  m_AtlasTags: []
  m_SpriteAtlas: {fileID: 0}
  m_RD:
    serializedVersion: 3
    texture: {fileID: 2800000, guid: e12c1b9416179ca42b9846c4c8c5ce43, type: 3}
    alphaTexture: {fileID: 0}
    secondaryTextures: []
    m_SubMeshes:
    - serializedVersion: 2
      firstByte: 0
      indexCount: 6
      topology: 0
      baseVertex: 0
      firstVertex: 0
      vertexCount: 4
      localAABB:
        m_Center: {x: 0, y: 0, z: 0}
        m_Extent: {x: 0, y: 0, z: 0}
    m_IndexBuffer: 000001000200020001000300
    m_VertexData:
      serializedVersion: 3
      m_VertexCount: 4
      m_Channels:
      - stream: 0
        offset: 0
        format: 0
        dimension: 3
      - stream: 0
        offset: 0
        format: 0
        dimension: 0
      - stream: 0
        offset: 0
        format: 0
        dimension: 0
      - stream: 0
        offset: 0
        format: 0
        dimension: 0
      - stream: 1
        offset: 0
        format: 0
        dimension: 2
      - stream: 0
        offset: 0
        format: 0
        dimension: 0
      - stream: 0
        offset: 0
        format: 0
        dimension: 0
      - stream: 0
        offset: 0
        format: 0
        dimension: 0
      - stream: 0
        offset: 0
        format: 0
        dimension: 0
      - stream: 0
        offset: 0
        format: 0
        dimension: 0
      - stream: 0
        offset: 0
        format: 0
        dimension: 0
      - stream: 0
        offset: 0
        format: 0
        dimension: 0
      - stream: 0
        offset: 0
        format: 0
        dimension: 0
      - stream: 0
        offset: 0
        format: 0
        dimension: 0
      m_DataSize: 80
      _typelessdata: 1f856bbe9a99193e000000001f856b3e9a99193e000000001f856bbe00000000000000001f856b3e00000000000000000000000000000000000000000000000000000000000000000000000000000000
    m_Bindpose: []
    textureRect:
      serializedVersion: 2
      x: 0
      y: 0
      width: 46
      height: 15
    textureRectOffset: {x: 0, y: 0}
    atlasRectOffset: {x: -1, y: -1}
    settingsRaw: 64
    uvTransform: {x: 100, y: 23, z: 100, w: 0}
    downscaleMultiplier: 1
  m_AtlasRD:
    serializedVersion: 3
    texture: {fileID: 0}
    alphaTexture: {fileID: 0}
    secondaryTextures: []
    m_SubMeshes: []
    m_IndexBuffer:
    m_VertexData:
      serializedVersion: 3
      m_VertexCount: 0
      m_Channels: []
      m_DataSize: 0
      _typelessdata:
    m_Bindpose: []
    textureRect:
      serializedVersion: 2
      x: 0
      y: 0
      width: 0
      height: 0
    textureRectOffset: {x: 0, y: 0}
    atlasRectOffset: {x: 0, y: 0}
    settingsRaw: 0
    uvTransform: {x: 0, y: 0, z: 0, w: 0}
    downscaleMultiplier: 0
  m_PhysicsShape:
  - - {x: -0.22, y: 0.14999999}
    - {x: -0.22999999, y: 0.13}
    - {x: -0.22999999, y: 0}
    - {x: 0.22999999, y: 0}
    - {x: 0.22999999, y: 0.13}
    - {x: 0.16, y: 0.14999999}
  m_Bones: []
  m_SpriteID:
