%YAML 1.1
%TAG !u! tag:unity3d.com,2011:
--- !u!213 &21300000
Sprite:
  m_ObjectHideFlags: 0
  m_CorrespondingSourceObject: {fileID: 0}
  m_PrefabInstance: {fileID: 0}
  m_PrefabAsset: {fileID: 0}
  m_Name: ic_arrow (1)
  m_Rect:
    serializedVersion: 2
    x: 0
    y: 0
    width: 43
    height: 31
  m_Offset: {x: 0, y: 0}
  m_Border: {x: 0, y: 0, z: 0, w: 0}
  m_PixelsToUnits: 100
  m_Pivot: {x: 0.5, y: 0.5}
  m_Extrude: 1
  m_IsPolygon: 0
  m_AtlasName:
  m_PackingTag:
  m_RenderDataKey:
    1e971cb8ae1bdc94488f897dc93a1ac4: 21300000
  m_AtlasTags: []
  m_SpriteAtlas: {fileID: 0}
  m_RD:
    serializedVersion: 3
    texture: {fileID: 2800000, guid: add904cbf2dc9d54b838f9ce74c3bcb8, type: 3}
    alphaTexture: {fileID: 0}
    secondaryTextures: []
    m_SubMeshes:
    - serializedVersion: 2
      firstByte: 0
      indexCount: 6
      topology: 0
      baseVertex: 0
      firstVertex: 0
      vertexCount: 4
      localAABB:
        m_Center: {x: 0, y: 0, z: 0}
        m_Extent: {x: 0, y: 0, z: 0}
    m_IndexBuffer: 000001000200020001000300
    m_VertexData:
      serializedVersion: 3
      m_VertexCount: 4
      m_Channels:
      - stream: 0
        offset: 0
        format: 0
        dimension: 3
      - stream: 0
        offset: 0
        format: 0
        dimension: 0
      - stream: 0
        offset: 0
        format: 0
        dimension: 0
      - stream: 0
        offset: 0
        format: 0
        dimension: 0
      - stream: 1
        offset: 0
        format: 0
        dimension: 2
      - stream: 0
        offset: 0
        format: 0
        dimension: 0
      - stream: 0
        offset: 0
        format: 0
        dimension: 0
      - stream: 0
        offset: 0
        format: 0
        dimension: 0
      - stream: 0
        offset: 0
        format: 0
        dimension: 0
      - stream: 0
        offset: 0
        format: 0
        dimension: 0
      - stream: 0
        offset: 0
        format: 0
        dimension: 0
      - stream: 0
        offset: 0
        format: 0
        dimension: 0
      - stream: 0
        offset: 0
        format: 0
        dimension: 0
      - stream: 0
        offset: 0
        format: 0
        dimension: 0
      m_DataSize: 80
      _typelessdata: f6285cbe52b81e3e00000000f6285c3e52b81e3e00000000f6285cbe52b81ebe00000000f6285c3e52b81ebe000000000000000000000000000000000000000000000000000000000000000000000000
    m_Bindpose: []
    textureRect:
      serializedVersion: 2
      x: 0
      y: 0
      width: 43
      height: 31
    textureRectOffset: {x: 0, y: 0}
    atlasRectOffset: {x: -1, y: -1}
    settingsRaw: 64
    uvTransform: {x: 100, y: 21.5, z: 100, w: 15.5}
    downscaleMultiplier: 1
  m_AtlasRD:
    serializedVersion: 3
    texture: {fileID: 0}
    alphaTexture: {fileID: 0}
    secondaryTextures: []
    m_SubMeshes: []
    m_IndexBuffer:
    m_VertexData:
      serializedVersion: 3
      m_VertexCount: 0
      m_Channels: []
      m_DataSize: 0
      _typelessdata:
    m_Bindpose: []
    textureRect:
      serializedVersion: 2
      x: 0
      y: 0
      width: 0
      height: 0
    textureRectOffset: {x: 0, y: 0}
    atlasRectOffset: {x: 0, y: 0}
    settingsRaw: 0
    uvTransform: {x: 0, y: 0, z: 0, w: 0}
    downscaleMultiplier: 0
  m_PhysicsShape:
  - - {x: 0.195, y: 0.155}
    - {x: -0.21499999, y: 0.155}
    - {x: -0.21499999, y: -0.015}
    - {x: -0.155, y: -0.155}
    - {x: 0.055, y: -0.155}
    - {x: 0.13499999, y: -0.085}
    - {x: 0.21499999, y: 0.005}
    - {x: 0.21499999, y: 0.13499999}
  m_Bones: []
  m_SpriteID:
