%YAML 1.1
%TAG !u! tag:unity3d.com,2011:
--- !u!1001 &957970012605432856
PrefabInstance:
  m_ObjectHideFlags: 0
  serializedVersion: 2
  m_Modification:
    serializedVersion: 3
    m_TransformParent: {fileID: 0}
    m_Modifications:
    - target: {fileID: 5014313274247129277, guid: 4f9a78279003cd741b3e800cdad82cc9,
        type: 3}
      propertyPath: onEnterTrigger.m_PersistentCalls.m_Calls.Array.size
      value: 2
      objectReference: {fileID: 0}
    - target: {fileID: 8591630372085676077, guid: 4f9a78279003cd741b3e800cdad82cc9,
        type: 3}
      propertyPath: MovementSpeed
      value: 30
      objectReference: {fileID: 0}
    - target: {fileID: 8591630372085676077, guid: 4f9a78279003cd741b3e800cdad82cc9,
        type: 3}
      propertyPath: PathElements.Array.data[1].PathElementPosition.x
      value: 1
      objectReference: {fileID: 0}
    - target: {fileID: 8591630372085676077, guid: 4f9a78279003cd741b3e800cdad82cc9,
        type: 3}
      propertyPath: PathElements.Array.data[1].PathElementPosition.y
      value: 0
      objectReference: {fileID: 0}
    - target: {fileID: 8879129728389331215, guid: 4f9a78279003cd741b3e800cdad82cc9,
        type: 3}
      propertyPath: m_Size.x
      value: 1.7
      objectReference: {fileID: 0}
    - target: {fileID: 8879129728389331215, guid: 4f9a78279003cd741b3e800cdad82cc9,
        type: 3}
      propertyPath: m_Size.y
      value: 2
      objectReference: {fileID: 0}
    - target: {fileID: 8879129728389331215, guid: 4f9a78279003cd741b3e800cdad82cc9,
        type: 3}
      propertyPath: m_Offset.x
      value: 0.3
      objectReference: {fileID: 0}
    - target: {fileID: 8927976587195286695, guid: 4f9a78279003cd741b3e800cdad82cc9,
        type: 3}
      propertyPath: m_Name
      value: trap moving platform 4x24 Variant horizontal
      objectReference: {fileID: 0}
    - target: {fileID: 8931283218437867753, guid: 4f9a78279003cd741b3e800cdad82cc9,
        type: 3}
      propertyPath: m_LocalPosition.x
      value: 1
      objectReference: {fileID: 0}
    - target: {fileID: 8931283218437867753, guid: 4f9a78279003cd741b3e800cdad82cc9,
        type: 3}
      propertyPath: m_LocalPosition.y
      value: 5.5
      objectReference: {fileID: 0}
    - target: {fileID: 8931366249120220026, guid: 4f9a78279003cd741b3e800cdad82cc9,
        type: 3}
      propertyPath: m_LocalPosition.x
      value: 0
      objectReference: {fileID: 0}
    - target: {fileID: 8931366249120220026, guid: 4f9a78279003cd741b3e800cdad82cc9,
        type: 3}
      propertyPath: m_LocalPosition.y
      value: 0
      objectReference: {fileID: 0}
    - target: {fileID: 8931366249120220026, guid: 4f9a78279003cd741b3e800cdad82cc9,
        type: 3}
      propertyPath: m_LocalPosition.z
      value: 0
      objectReference: {fileID: 0}
    - target: {fileID: 8931366249120220026, guid: 4f9a78279003cd741b3e800cdad82cc9,
        type: 3}
      propertyPath: m_LocalRotation.w
      value: 1
      objectReference: {fileID: 0}
    - target: {fileID: 8931366249120220026, guid: 4f9a78279003cd741b3e800cdad82cc9,
        type: 3}
      propertyPath: m_LocalRotation.x
      value: 0
      objectReference: {fileID: 0}
    - target: {fileID: 8931366249120220026, guid: 4f9a78279003cd741b3e800cdad82cc9,
        type: 3}
      propertyPath: m_LocalRotation.y
      value: 0
      objectReference: {fileID: 0}
    - target: {fileID: 8931366249120220026, guid: 4f9a78279003cd741b3e800cdad82cc9,
        type: 3}
      propertyPath: m_LocalRotation.z
      value: 0
      objectReference: {fileID: 0}
    - target: {fileID: 8931366249120220026, guid: 4f9a78279003cd741b3e800cdad82cc9,
        type: 3}
      propertyPath: m_LocalEulerAnglesHint.x
      value: 0
      objectReference: {fileID: 0}
    - target: {fileID: 8931366249120220026, guid: 4f9a78279003cd741b3e800cdad82cc9,
        type: 3}
      propertyPath: m_LocalEulerAnglesHint.y
      value: 0
      objectReference: {fileID: 0}
    - target: {fileID: 8931366249120220026, guid: 4f9a78279003cd741b3e800cdad82cc9,
        type: 3}
      propertyPath: m_LocalEulerAnglesHint.z
      value: 0
      objectReference: {fileID: 0}
    m_RemovedComponents: []
    m_RemovedGameObjects: []
    m_AddedGameObjects: []
    m_AddedComponents: []
  m_SourcePrefab: {fileID: 100100000, guid: 4f9a78279003cd741b3e800cdad82cc9, type: 3}
